﻿2018年10月15日 下午 03:51:55

<IDE version>
CS+: V9.00.00.08 [12 Jun 2018]

<Compiler package version>
CC-RX: v2.08.00 -> CC-RX: V2.08.00


<Options not to use(HardwareDebug)>
 CCRX (Assemble Options)
   -output=%ConfigDir%



<Options to change(HardwareDebug)>
 CCRX (Link Options)
   Please check the memory mapping.



